How easy was it to find Kevin and notice when he starts waving while using this method?,How easy was it to answer the questions while using this method?
5,5
3,4
1,3
4,5
2,4
3,4
2,5
2,2
2,4
2,5
4,5
2,2
1,3
2,4
3,3
4,5
2,4
3,5
3,4
1,5
2,3
2,5
2,2
2,4
4,5
5,5
1,3
3,3
4,3
3,4
3,4
3,4
