gender,how are you feeling today?,do you wear eyeglasses or contact lenses?,"what is your occupation? if student, please specify graduate or undergraduate:","if student, what is your major:",ho many times have you ever tried vr?,"how often do you use your mobile phone to access information per day? (such as weather, news, email, text etc.)"
female,7,yes,undergraduate,computer science,once or twice,more than 10 times
male,5,yes,undergraduate,computer science,3 to 10,more than 10 times
male,5,yes,undergraduate,bit,3 to 10,more than 10 times
female,7,yes,graduate,human centered design,3 to 10,more than 10 times
female,5,yes,undergraduate,computer science,3 to 10,more than 10 times
female,4,yes,undergraduate,mechanical engineering,more than 10 times,more than 10 times
male,6,yes,graduate,computer engineering,once or twice,more than 10 times
male,5,yes,undergraduate,mechanical engineering,3 to 10,more than 10 times
female,7,no,graduate,computer science,3 to 10,more than 10 times
male,6,no,graduate,computer science,once or twice,more than 10 times
male,5,no,undergraduate,computer science,3 to 10,more than 10 times
male,5,yes,undergrad,computer science,once or twice,more than 10 times
male,7,yes,graduate,civil engineering ,more than 10 times,more than 10 times
male,6,no,undergraduate,computer engineering,never,more than 10 times
male,5,yes,undergraduate,computer engineering,once or twice,more than 10 times
male,6,no,undergraduate,computer engineering,once or twice,more than 10 times
male,6,yes,undergraduate,computer engineering,once or twice,more than 10 times
male,6,yes,undergraduate,computer science,3 to 10,3-10 times
male,6,no,undergraduate,computer science,once or twice,more than 10 times
female,5,yes,undergraduate,computer science,3 to 10,more than 10 times
male,5,no,undergraduate,computer science,once or twice,more than 10 times
male,6,yes,undergraduate,space systems,more than 10 times,more than 10 times
male,4,no,graduate,ise - human factors,more than 10 times,more than 10 times
male,5,no,undergraduate,computer science,3 to 10,more than 10 times
male,6,yes,undergraduate,computer engineering,more than 10 times,more than 10 times
male,7,no,undergraduate,general engineering,more than 10 times,more than 10 times
male,6,yes,undergraduate,computer science,3 to 10,3-10 times
male,6,yes,undergrad sudent,industrial engineering,once or twice,3-10 times
male,5,yes,undergraduate,computer science,once or twice,more than 10 times
female,7,no,graduate,environmental design and planning,once or twice,3-10 times
male,4,yes,undergraduate,computer science,3 to 10,more than 10 times
female,5,no,graduate,architecture,3 to 10,more than 10 times
