M 4
S 3
C 1
C 3
C 2
N 759.9506
C 4
Q 4 2 761.969
C 6
C 5
C 4
A 2 766.6741
C 4
N 770.6707
C 4
C 5
C 6
C 3
C 2
C 1
W 782.6741
Q 3 1 782.6741
B 784.7459
C 3
A 1 786.9648
C 3
N 791.055
C 2
C 3
C 3
W 797.0567
B 798.781
N 802.8311
C 2
C 3
C 2
C 3
C 4
C 5
C 6
W 809.8353
Q 5 3 809.8353
B 811.7869
C 5
A 3 815.4894
C 5
N 819.4594
C 4
C 5
C 6
C 5
C 4
Q 6 3 823.4694
C 6
C 6
A 3 828.7225
N 832.9464
C 4
C 5
C 6
C 6
C 4
W 842.9581
Q 4 1 842.9581
B 844.8428
A 1 847.0082
N 851.0316
W 855.0416
C 4
C 5
C 6
C 5
B 857.7551
C 4
N 862.3398
W 866.3499
Q 3 0 866.3499
C 5
C 6
C 4
C 3
C 2
C 1
B 873.3273
A 0 874.4902
C 3
N 878.6339
C 2
C 1
C 1
C 2
C 6
Q 6 0 885.6381
C 6
A 0 889.8754
C 6
N 894.2329
C 6
C 6
C 1
Q 1 3 897.2404
C 2
C 1
A 3 903.3891
N 907.319
