M 5
S 4
N 928.0258
W 935.0299
Q 2 2 935.0299
B 940.8043
C 3
C 3
C 2
C 2
A 2 946.3917
N 950.9898
Q 1 2 953.9973
C 1
C 1
A 2 960.9079
N 964.8912
W 969.9037
Q 2 1 969.9037
B 971.4276
C 2
C 2
C 3
C 2
C 3
A 1 975.0366
C 2
N 979.1402
W 991.1435
B 992.5203
N 996.5303
Q 3 2 1000.54
C 3
A 2 1005.018
C 3
N 1009.042
W 1014.054
B 1015.217
N 1019.414
W 1029.426
Q 4 3 1029.426
B 1030.575
C 4
C 4
A 3 1033.235
N 1037.713
Q 6 2 1039.718
C 6
C 6
A 2 1044.263
N 1048.34
Q 5 3 1053.366
C 5
C 5
A 3 1056.761
N 1061.038
W 1064.046
Q 4 2 1064.046
B 1065.316
C 4
C 4
A 2 1067.427
N 1071.478
