M 8
S 7
C 5
C 5
N 1427.176
C 3
C 2
Q 2 2 1432.189
C 2
C 2
A 2 1435.945
C 2
C 3
C 2
C 3
N 1440.77
C 4
C 5
W 1443.778
Q 4 0 1443.778
B 1445.663
C 4
C 4
A 0 1447.868
C 4
C 5
C 4
C 5
N 1453.803
C 4
C 5
C 5
C 4
W 1456.81
C 1
B 1458.107
N 1461.81
C 3
C 2
Q 3 3 1468.814
C 3
C 3
A 3 1472.53
N 1476.353
C 3
C 2
C 3
C 1
W 1485.362
Q 1 1 1485.362
B 1486.485
C 1
C 1
A 1 1489.211
N 1492.914
Q 6 2 1494.919
C 5
C 6
C 6
A 2 1501.843
N 1506.147
C 1
W 1510.157
Q 2 1 1510.157
B 1513.352
A 1 1514.368
N 1519.247
C 5
C 6
W 1532.252
B 1533.856
N 1538.227
C 5
W 1541.234
Q 5 0 1541.234
C 6
B 1542.25
C 5
C 5
A 0 1544.79
N 1548.425
C 1
Q 1 2 1557.435
C 1
C 1
A 2 1561.779
N 1565.695
