M 7
S 5
N 1658.332
C 4
C 5
C 6
C 4
C 5
Q 5 1 1668.343
A 1 1674.719
N 1678.89
C 3
C 2
W 1680.895
Q 3 1 1680.895
C 3
C 3
B 1683.033
C 2
C 3
A 1 1687.364
N 1691.2
W 1696.213
Q 4 0 1696.213
C 4
C 5
B 1700.45
C 5
C 4
A 0 1703.805
N 1707.601
Q 2 3 1709.606
A 3 1714.071
C 4
C 5
C 4
C 5
C 3
C 2
C 3
N 1718.963
C 1
W 1723.976
B 1725.419
N 1729.403
C 1
W 1736.407
Q 1 0 1736.407
B 1738.666
C 1
A 0 1748.624
C 1
C 1
N 1753.102
C 2
Q 3 3 1756.109
C 3
C 2
C 3
C 3
A 3 1762.231
C 3
C 3
N 1765.854
C 4
C 5
C 6
C 5
C 4
C 6
C 2
C 3
Q 2 0 1774.863
C 2
A 0 1778.499
N 1783.832
C 4
C 5
W 1788.844
Q 6 1 1788.844
C 4
B 1791.398
A 1 1797.372
N 1802.719
C 5
C 5
C 3
C 2
C 1
C 4
C 5
C 6
C 5
C 4
C 6
C 6
W 1814.723
B 1816.995
N 1821.82
