M 5
S 5
C 4
C 4
C 5
C 6
C 5
C 6
N 1279.128
Q 5 1 1289.153
C 5
C 5
A 1 1295.663
N 1299.512
W 1301.517
Q 3 1 1301.517
B 1302.961
C 3
A 1 1305.541
C 3
N 1309.35
W 1314.363
Q 4 0 1314.363
B 1315.74
C 4
A 0 1318.012
C 4
N 1325.109
Q 2 3 1327.115
C 1
C 2
C 2
A 3 1332.328
C 1
N 1335.83
W 1340.842
B 1342.246
N 1346.122
W 1353.126
Q 1 0 1353.126
C 1
B 1355.639
C 1
A 0 1357.43
N 1362.028
Q 3 3 1365.036
C 2
C 3
C 3
A 3 1369.607
C 2
N 1373.965
Q 2 0 1382.974
C 2
C 2
A 0 1387.452
N 1391.957
W 1396.969
Q 6 1 1396.969
B 1398.426
C 6
C 6
A 1 1404.909
N 1409.213
W 1421.216
B 1422.566
N 1426.937
