M 5
S 2
N 630.4088
Q 3 2 635.4213
C 3
C 3
A 2 640.5408
N 645.9008
W 649.9108
B 651.7154
N 656.0462
W 659.0537
Q 1 2 659.0537
B 660.5775
C 1
C 1
A 2 665.1088
N 669.3996
Q 5 1 676.4037
C 5
C 5
A 1 680.8148
N 685.2525
Q 6 3 688.2601
C 6
C 6
A 3 693.5533
N 697.6836
W 704.6877
Q 5 3 704.6877
B 706.2918
C 5
C 5
A 3 712.7346
N 717.3193
Q 1 0 722.3318
C 1
C 1
A 0 726.5825
N 730.8064
W 743.8123
B 745.5098
N 749.7471
W 753.7571
Q 2 3 753.7571
B 755.5616
C 2
C 2
A 3 759.0504
N 763.7822
W 773.7938
Q 4 2 773.7938
B 775.2374
C 4
C 4
A 2 778.8198
N 783.2174
