M 7
S 4
C 4
C 5
C 2
N 986.7953
C 2
C 1
W 993.7994
Q 2 2 993.7994
B 995.4302
C 2
A 2 999.5071
N 1003.357
C 1
Q 1 2 1006.364
C 1
A 2 1010.722
C 1
N 1014.531
C 2
W 1019.544
Q 2 1 1019.544
B 1020.907
C 2
A 1 1023.768
C 2
N 1028.834
C 5
W 1040.837
B 1042.187
N 1046.237
C 2
Q 3 2 1050.247
A 2 1053.896
N 1057.987
C 5
C 4
W 1062.999
B 1064.269
N 1068.306
C 4
C 5
W 1078.317
Q 4 3 1078.317
B 1080.082
C 4
A 3 1083.571
N 1087.834
C 5
Q 6 2 1089.839
A 2 1094.077
N 1098.033
C 5
Q 5 3 1103.059
C 5
C 5
A 3 1107.002
N 1111.24
C 2
W 1114.247
Q 4 2 1114.247
C 1
C 4
C 5
B 1117.602
C 4
A 2 1120.596
N 1124.981
C 5
