M 8
S 5
C 5
N 1162.504
C 6
Q 5 1 1172.516
A 1 1176.472
N 1181.458
W 1183.463
Q 3 1 1183.463
C 2
C 3
B 1187.313
C 3
A 1 1190.681
C 3
N 1194.504
C 5
W 1199.516
Q 4 0 1199.516
B 1200.96
A 0 1203.7
N 1210.343
C 2
Q 2 3 1212.348
C 2
C 2
A 3 1218.671
N 1222.801
C 1
W 1227.803
B 1230.075
N 1234.553
C 1
W 1241.557
Q 1 0 1241.557
B 1243.669
C 1
C 1
A 0 1246.503
N 1251.649
C 2
C 3
Q 3 3 1254.656
C 3
C 3
A 3 1259.108
N 1263.104
C 3
Q 2 0 1272.114
A 0 1274.76
N 1281.19
C 6
C 5
W 1286.202
Q 6 1 1286.202
B 1287.819
C 6
A 1 1292.11
N 1296.441
C 6
W 1308.458
B 1309.768
N 1313.831
