M 1
S 6
N 1334.075
W 1341.079
Q 2 1 1341.079
B 1342.496
C 2
C 2
A 1 1346.091
N 1350.569
Q 4 3 1353.577
C 4
A 3 1357.32
N 1361.396
W 1366.409
Q 3 0 1366.409
B 1367.679
C 3
A 0 1369.791
C 3
N 1373.453
W 1386.459
B 1387.969
N 1391.792
Q 4 1 1394.8
C 4
A 1 1398.743
N 1402.539
Q 2 2 1412.551
C 2
C 2
A 2 1416.427
N 1421.667
W 1428.671
B 1430.035
N 1434.713
Q 5 0 1436.718
C 5
A 0 1441.477
C 5
N 1445.834
W 1449.844
Q 1 3 1449.844
B 1451.435
C 1
C 1
A 3 1454.857
N 1458.746
Q 6 2 1463.759
C 6
C 6
A 2 1469.52
N 1473.53
