M 5
S 1
N 361.2672
W 364.2747
B 367.4693
N 372.0808
Q 3 2 384.0842
C 3
C 3
A 2 390.0992
N 394.2028
W 399.2287
Q 6 0 399.2287
B 402.0624
C 6
C 6
A 0 408.2379
N 412.4618
W 422.4735
Q 1 1 422.4735
B 424.8127
C 1
C 1
A 1 428.8227
N 432.7525
Q 2 0 436.7625
C 2
C 2
C 2
C 2
A 0 445.3173
N 449.7283
Q 6 1 456.7458
C 6
C 6
A 1 463.496
N 467.5461
W 479.5495
Q 4 1 479.5495
B 481.608
C 4
A 1 485.6982
N 489.6948
W 492.7024
Q 3 1 492.7024
B 494.5871
C 3
A 1 499.4392
N 503.5027
W 510.5069
B 512.2312
N 516.4283
Q 5 2 518.4333
C 5
C 5
A 2 523.8602
N 527.9237
