M 1
S 5
C 3
C 3
N 1129.112
Q 5 1 1139.123
C 5
A 1 1145.045
N 1149.322
W 1151.327
Q 3 1 1151.327
B 1152.784
C 3
A 1 1155.431
N 1159.641
W 1164.654
Q 4 0 1164.654
B 1166.151
C 4
A 0 1169.987
N 1173.85
Q 2 3 1175.855
C 2
C 2
A 3 1181.977
N 1185.974
W 1190.986
B 1192.564
N 1196.199
W 1203.203
Q 1 0 1203.203
B 1204.62
C 1
C 1
A 0 1210.435
N 1214.285
Q 3 3 1217.292
C 3
A 3 1223.053
N 1226.796
Q 2 0 1235.805
C 2
A 0 1240.243
N 1243.838
W 1248.851
Q 6 1 1248.851
B 1251.324
C 6
A 1 1254.117
N 1258.863
W 1270.866
B 1272.283
N 1276.119
