M 8
S 2
N 460.504
C 3
C 2
Q 3 2 465.5165
C 3
A 2 468.5374
C 3
N 472.8682
C 2
C 3
W 476.8783
B 478.0813
N 482.1715
C 3
C 2
W 485.179
Q 1 2 485.179
B 486.8766
A 2 489.2826
N 493.3194
C 4
C 5
Q 5 1 500.3235
C 5
C 5
A 1 505.1757
N 509.0921
C 6
Q 6 3 512.0997
C 6
C 6
A 3 516.9384
N 520.8682
C 6
W 527.8724
Q 5 3 527.8724
B 531.2542
A 3 532.2166
N 536.3336
C 2
Q 1 0 541.3461
A 0 545.0085
N 549.0052
C 4
W 562.011
B 563.4814
N 567.5582
C 3
W 571.5683
Q 2 3 571.5683
B 572.9451
A 3 575.311
N 579.1873
C 4
W 589.199
Q 4 2 589.199
B 590.509
C 4
A 2 595.4413
C 4
C 4
N 599.585
