M 2
S 4
N 800.2482
W 807.2524
Q 2 2 807.2524
B 808.4554
A 2 811.6233
N 815.5799
Q 1 2 818.5874
C 1
C 1
A 2 823.1053
N 827.3827
W 832.3953
Q 2 1 832.3953
B 834.0661
C 2
C 2
C 2
A 1 837.3276
C 3
C 3
N 841.4579
W 853.4746
B 854.6375
N 858.6743
Q 3 2 862.6843
A 2 866.1329
N 870.3568
W 875.3693
B 876.7728
N 881.0101
W 891.0352
Q 4 3 891.0352
B 892.305
C 4
A 3 894.3902
N 898.5472
Q 6 2 900.5656
C 6
C 6
A 2 905.0703
N 908.9466
Q 5 3 913.9591
C 5
C 5
A 3 917.5815
N 922.2866
W 925.2941
Q 4 2 925.2941
B 926.6709
A 2 928.5289
N 932.6592
