M 8
S 1
C 6
C 6
C 6
C 6
N 563.0953
W 566.1028
C 1
B 568.4286
C 1
C 1
N 581.2473
C 3
C 2
Q 3 2 593.2506
C 3
A 2 601.4578
C 3
N 616.6692
C 6
W 621.6817
Q 6 0 621.6817
B 624.5021
C 6
A 0 642.6006
C 6
N 651.6633
C 2
C 1
W 661.675
Q 1 1 661.675
B 662.9582
C 1
A 1 670.1762
N 675.924
C 1
Q 2 0 679.934
A 0 690.3066
N 698.7009
Q 6 1 705.705
C 6
C 6
A 1 717.2806
C 6
N 736.5555
C 5
W 748.5588
Q 4 1 748.5588
B 749.8153
A 1 756.3516
N 761.8187
C 3
W 764.8262
Q 3 1 764.8262
B 766.4302
C 3
A 1 776.9631
C 3
N 780.7727
C 3
W 787.7769
B 788.9799
N 793.0032
Q 5 2 795.0083
C 6
A 2 806.2764
N 836.8863
