M 6
S 7
N 2183.846
Q 2 2 2188.859
C 2
A 2 2193.551
C 2
N 2197.347
W 2200.354
Q 4 0 2200.354
B 2202.199
C 4
A 0 2208.749
C 4
N 2217.197
W 2220.204
B 2221.313
N 2224.802
Q 3 3 2231.806
C 3
A 3 2237.34
C 3
N 2241.243
C 3
C 2
C 3
C 2
C 3
C 2
C 3
C 3
C 2
W 2250.252
Q 1 1 2250.252
C 3
C 2
B 2251.79
C 2
C 3
C 1
A 1 2257.537
N 2265.21
Q 6 2 2267.215
C 6
C 6
A 2 2272.455
N 2276.398
W 2280.408
Q 2 1 2280.408
B 2281.624
A 1 2286.677
N 2290.7
W 2303.706
B 2304.842
N 2308.598
W 2311.619
Q 5 0 2311.619
B 2312.969
C 5
C 5
A 0 2317.795
N 2322.326
C 5
C 4
C 5
C 4
C 2
C 2
Q 1 2 2331.335
C 1
C 1
A 2 2337.069
N 2341.24
