M 3
S 2
C 4
C 4
C 6
C 6
C 6
C 6
N 524.3749
C 3
Q 3 2 529.3875
C 3
C 3
C 3
A 2 534.9747
C 2
C 2
N 539.105
C 3
C 3
C 2
W 543.1151
B 545.08
N 550.3599
C 3
W 553.3674
Q 1 2 553.3674
B 555.506
C 3
A 2 559.2487
C 3
C 3
N 565.09
C 2
C 2
C 4
Q 5 1 572.0942
A 1 575.9438
N 579.9805
C 6
Q 6 3 582.9881
C 6
C 6
A 3 588.5085
N 592.4651
C 6
W 599.4692
Q 5 3 599.4692
B 601.2604
A 3 606.7809
N 610.6038
C 2
Q 1 0 615.6163
C 2
C 2
A 0 619.8134
N 623.623
C 5
W 636.6288
B 639.8903
N 644.1008
C 3
W 648.1108
Q 2 3 648.1108
B 650.2094
A 3 652.9496
N 656.7725
C 4
W 666.7842
Q 4 2 666.7842
B 668.8293
C 4
A 2 671.9036
C 5
N 676.0607
