M 1
S 7
N 1757.561
Q 2 2 1762.574
C 2
C 2
A 2 1767.225
N 1771.035
W 1774.056
Q 4 0 1774.056
B 1775.526
C 4
C 4
A 0 1779.015
N 1783.092
W 1786.099
B 1792.328
N 1796.191
Q 3 3 1803.195
C 3
C 3
A 3 1806.951
N 1810.828
W 1819.837
Q 1 1 1819.837
B 1822.243
C 1
C 1
A 1 1824.943
N 1828.9
Q 6 2 1830.905
C 6
C 6
A 2 1837
N 1841.157
W 1845.167
Q 2 1 1845.167
B 1846.731
C 2
C 2
A 1 1851.877
N 1856.047
W 1869.053
B 1870.323
N 1874.641
W 1877.648
Q 5 0 1877.648
B 1879.199
C 5
C 5
A 0 1881.712
N 1888.809
Q 1 2 1897.818
C 1
C 1
A 2 1902.35
N 1906.667
