M 8
S 4
C 1
C 2
C 2
C 1
N 1009.528
C 1
W 1016.533
Q 2 2 1016.533
B 1018.23
A 2 1022.467
N 1027.814
C 1
Q 1 2 1030.822
C 1
C 1
A 2 1035.647
N 1040.285
C 2
C 1
W 1045.311
Q 2 1 1045.311
B 1046.982
C 2
A 1 1051.674
C 2
N 1055.67
C 5
W 1067.674
C 6
B 1069.411
N 1074.157
C 2
C 1
Q 3 2 1078.167
A 2 1082.685
N 1086.668
C 4
C 5
W 1091.68
B 1093.485
N 1098.27
C 4
C 5
W 1108.282
Q 4 3 1108.282
B 1110.22
C 4
A 3 1112.76
C 4
N 1116.583
C 5
Q 6 2 1118.588
C 6
C 6
A 2 1123.373
C 6
N 1127.731
C 5
C 6
Q 5 3 1132.743
C 5
A 3 1137.007
C 5
N 1140.857
C 5
C 6
W 1143.878
Q 4 2 1143.878
B 1145.575
A 3 1146.431
N 1150.414
