M 1
S 5
N 1168.392
Q 5 1 1178.417
C 5
A 1 1186.584
C 5
N 1190.794
W 1192.799
Q 3 1 1192.799
B 1194.443
C 3
C 3
A 1 1197.972
N 1201.889
W 1206.901
Q 4 0 1206.901
B 1208.585
C 4
A 0 1213.478
C 4
N 1217.661
Q 2 3 1219.667
C 2
C 2
A 3 1224.131
N 1227.941
W 1232.953
B 1233.849
N 1237.859
W 1244.863
Q 1 0 1244.863
B 1246.494
C 1
C 1
A 0 1249.341
N 1253.07
Q 3 3 1256.091
C 3
A 3 1262.467
C 3
N 1266.517
Q 2 0 1275.526
C 2
C 2
A 0 1280.499
N 1284.535
W 1289.548
Q 6 1 1289.548
B 1290.377
C 6
A 1 1297.996
C 6
N 1301.885
W 1313.889
B 1314.57
N 1319.356
