M 2
S 1
C 6
C 6
C 5
C 5
C 4
C 4
N 371.3323
W 374.3398
B 376.425
N 382.4133
Q 3 2 394.4167
C 3
C 3
A 2 399.4961
N 403.7066
W 408.7191
Q 6 0 408.7191
B 410.9113
C 6
C 6
A 0 416.7926
N 421.3507
W 431.3624
Q 1 1 431.3624
B 433.6748
C 1
A 1 438.2329
N 443.0315
Q 2 0 447.0416
A 0 453.0565
N 457.3072
Q 6 1 464.3114
C 6
C 6
A 1 470.1794
N 474.4167
W 486.42
Q 4 1 486.42
B 488.5052
A 1 493.2638
N 497.6881
W 500.6957
Q 3 1 500.6957
B 502.9279
C 3
A 1 507.8602
N 511.8703
W 518.8745
B 520.826
N 524.9296
Q 5 2 526.9346
A 2 531.4125
N 535.7433
