M 1
S 8
N 1977.468
W 1981.478
Q 4 3 1981.478
B 1982.828
C 4
C 4
A 3 1987.239
N 1991.436
W 1996.449
B 1997.879
N 2001.769
Q 5 2 2006.781
C 5
C 5
A 2 2011.433
N 2015.483
W 2018.491
Q 3 3 2018.491
B 2019.76
C 3
C 3
A 3 2025.241
N 2029.224
Q 6 3 2039.236
C 6
C 6
A 3 2046.093
N 2050.29
W 2057.294
Q 1 1 2057.294
B 2058.671
C 1
C 1
A 1 2063.363
N 2067.172
Q 5 1 2077.184
C 5
C 5
A 1 2081.608
N 2086.126
W 2090.136
Q 1 3 2090.136
B 2091.981
C 1
C 1
A 3 2096.9
N 2100.87
W 2105.882
B 2108.021
N 2112.125
Q 6 1 2117.137
C 6
C 6
A 1 2123.353
N 2127.804
