M 1
S 4
N 1166.504
W 1173.508
Q 2 2 1173.508
B 1176.075
U 1176.249
C 2
C 2
A 2 1180.205
N 1184.843
Q 1 2 1187.851
C 1
C 1
A 2 1192.636
N 1196.553
W 1201.565
Q 2 1 1201.565
B 1203.316
U 1203.477
C 2
C 2
A 1 1207.821
N 1214.518
W 1226.521
B 1227.737
U 1227.898
N 1231.68
Q 3 2 1235.691
C 3
C 3
A 2 1241.305
N 1245.087
W 1250.1
B 1251.036
U 1251.249
N 1254.711
W 1264.723
Q 4 3 1264.723
B 1266.033
U 1266.193
C 4
C 4
A 3 1269.562
N 1273.345
Q 6 2 1275.35
C 6
C 6
A 2 1280.416
N 1284.43
Q 5 3 1289.442
C 5
C 5
A 3 1294.241
N 1298.051
W 1301.058
Q 4 2 1301.058
B 1302.421
U 1302.568
C 4
C 4
A 2 1305.041
N 1308.944
