M 5
S 8
C 3
C 4
C 3
C 4
N 1999.73
W 2003.74
Q 4 3 2003.74
B 2006.494
U 2006.627
C 6
C 6
C 4
C 4
A 3 2012.696
N 2021.17
W 2026.183
B 2027.88
U 2028.054
N 2031.77
Q 5 2 2036.783
C 5
C 5
A 2 2041.515
N 2045.364
W 2048.372
Q 3 3 2048.372
B 2049.682
U 2049.869
C 3
C 3
A 3 2052.609
N 2056.539
Q 6 3 2066.551
C 6
C 6
A 3 2070.921
N 2074.744
W 2081.749
Q 1 1 2081.749
B 2083.887
U 2084.061
C 1
C 1
A 1 2087.309
N 2091.252
Q 5 1 2101.264
C 5
C 5
A 1 2104.606
N 2108.415
W 2112.425
Q 1 3 2112.425
B 2114.871
U 2115.032
C 1
C 1
A 3 2117.438
N 2121.622
W 2126.634
B 2129.147
U 2129.347
N 2133.224
Q 6 1 2138.236
C 6
C 6
A 1 2142.821
N 2146.738
