M 2
S 5
C 5
C 5
N 1341.956
Q 5 1 1351.967
A 1 1357.421
N 1361.765
W 1363.77
Q 3 1 1363.77
B 1365.561
C 3
A 1 1371.255
C 3
N 1375.667
W 1380.679
Q 4 0 1380.679
B 1382.096
A 0 1386.467
N 1393.939
Q 2 3 1395.944
C 2
C 2
A 3 1402.039
N 1406.303
W 1411.316
B 1412.973
N 1416.769
W 1423.773
Q 1 0 1423.773
B 1425.792
C 1
C 1
A 0 1430.697
N 1434.921
Q 3 3 1437.929
C 3
C 3
A 3 1443.61
N 1447.579
Q 2 0 1456.589
C 2
A 0 1461.481
C 2
N 1465.839
W 1470.851
Q 6 1 1470.851
B 1472.575
C 6
A 1 1478.176
C 6
N 1482.106
W 1494.109
B 1495.66
N 1500.512
