M 3
S 6
N 1548.692
C 6
C 2
C 1
C 6
W 1555.697
Q 2 1 1555.697
B 1557.154
C 2
C 2
A 1 1563.971
N 1568.007
C 5
Q 4 3 1571.015
A 3 1574.878
N 1580.96
C 3
W 1585.972
Q 3 0 1585.972
B 1587.737
C 3
C 3
A 0 1593.11
N 1597.133
C 2
W 1610.139
B 1611.823
N 1616.261
C 4
Q 4 1 1619.269
C 4
C 4
A 1 1623.372
N 1627.449
C 2
Q 2 2 1637.461
C 2
C 2
A 2 1642.928
N 1646.764
C 5
W 1653.768
B 1655.145
N 1659.356
C 6
Q 5 0 1661.361
A 0 1665.331
N 1669.795
C 2
W 1673.805
Q 1 3 1673.805
B 1675.489
A 3 1681.531
N 1685.621
C 5
Q 6 2 1690.634
A 2 1694.537
N 1700.646
C 5
