M 8
S 1
C 6
C 6
N 455.7139
W 458.7214
C 1
B 460.6462
C 1
N 467.49
C 2
C 3
C 2
Q 3 2 479.4933
C 3
C 3
A 2 485.0271
N 489.505
C 6
W 494.5175
Q 6 0 494.5175
B 496.4423
C 6
A 0 500.6529
N 505.104
C 2
W 515.1157
Q 1 1 515.1157
B 517.4816
C 1
C 1
A 1 523.5768
N 528.9102
C 1
Q 2 0 532.9202
A 0 537.2242
N 541.3813
C 6
Q 6 1 548.3855
C 6
A 1 553.3044
N 558.4774
C 5
W 570.4807
Q 4 1 570.4807
B 572.3654
C 4
C 4
A 1 580.8667
N 585.4381
C 3
W 588.4456
Q 3 1 588.4456
B 590.6645
C 3
A 1 594.6077
C 3
N 599.0856
C 3
W 606.0897
B 608.1081
N 612.332
Q 5 2 614.337
C 6
A 2 620.1248
N 625.124
