M 5
S 6
C 6
N 1720.727
W 1727.731
Q 2 1 1727.731
B 1729.87
C 2
C 2
A 1 1732.516
N 1737.208
Q 4 3 1740.229
C 4
C 4
A 3 1746.097
N 1750.508
W 1755.521
Q 3 0 1755.521
B 1757.058
C 3
C 3
A 0 1759.958
N 1764.329
W 1777.335
B 1778.886
N 1783.35
Q 4 1 1786.358
C 4
A 1 1791.571
N 1796.062
Q 2 2 1806.074
C 2
A 2 1810.511
N 1815.15
W 1822.167
B 1823.704
N 1827.848
Q 5 0 1829.867
C 5
A 0 1835.882
N 1839.999
W 1844.009
Q 1 3 1844.009
B 1845.693
C 1
A 3 1849.168
N 1854.221
Q 6 2 1859.233
C 6
C 6
A 2 1863.845
N 1869.526
