M 3
S 4
C 2
C 2
C 1
C 1
C 2
C 3
C 2
C 3
N 1234.577
C 1
W 1241.581
Q 2 2 1241.581
B 1243.265
A 2 1247.409
N 1251.552
Q 1 2 1254.56
C 1
C 1
C 1
A 2 1259.573
N 1263.542
C 2
C 1
W 1268.555
Q 2 1 1268.555
B 1270.279
C 2
C 2
A 1 1274.463
N 1278.473
C 1
C 2
C 1
C 2
C 5
C 6
W 1290.476
B 1291.907
N 1296.157
C 2
C 1
Q 3 2 1300.167
A 2 1305.247
N 1309.243
C 5
C 4
W 1314.256
B 1315.633
N 1319.563
C 4
C 5
W 1329.574
Q 4 3 1329.574
B 1331.232
C 4
C 4
A 3 1337.674
N 1340.922
Q 6 2 1342.928
C 5
C 6
C 6
A 2 1351.709
N 1356.268
C 5
C 6
Q 5 3 1361.28
C 5
C 5
C 5
C 5
A 3 1369.313
N 1373.323
C 6
C 5
W 1376.331
Q 4 2 1376.331
B 1377.962
A 2 1383.202
N 1386.276
C 5
