M 4
S 5
C 5
C 6
C 4
C 3
C 2
C 1
N 1410.824
C 6
Q 5 1 1420.836
A 1 1426.905
N 1431.035
C 2
W 1433.04
Q 3 1 1433.04
C 3
B 1434.524
C 3
C 3
A 1 1439.282
N 1443.052
C 5
C 6
W 1448.064
Q 4 0 1448.064
B 1449.802
A 0 1455.296
N 1459.158
C 5
C 4
Q 2 3 1461.163
C 2
C 1
C 2
C 2
A 3 1467.686
N 1471.456
C 2
C 5
C 1
W 1476.481
B 1477.725
N 1481.681
C 1
W 1488.686
Q 1 0 1488.686
B 1489.969
C 1
C 1
A 0 1494.286
N 1497.321
C 2
C 3
Q 3 3 1500.328
C 3
C 3
A 3 1507.439
N 1511.476
C 3
C 2
Q 2 0 1520.485
C 2
C 2
A 0 1526.139
N 1530.163
C 3
C 1
C 5
C 6
W 1535.175
Q 6 1 1535.175
B 1536.458
C 6
C 6
A 1 1541.725
N 1545.935
C 4
C 5
C 2
C 1
C 6
W 1557.939
B 1559.195
N 1563.178
