M 5
S 2
N 829.3077
Q 3 2 834.3203
C 3
A 2 843.276
N 847.3662
W 851.3762
B 853.0604
N 858.3002
W 861.3077
Q 1 2 861.3077
B 863.0989
C 1
A 2 869.9426
N 873.7922
Q 5 1 880.7964
C 5
A 1 886.4907
N 890.7814
Q 6 3 893.7889
C 6
A 3 901.9694
N 906.5675
W 913.5717
Q 5 3 913.5717
B 917.3682
C 5
A 3 922.9016
N 926.8849
Q 1 0 931.8975
C 1
A 0 937.2041
N 941.1339
W 954.1398
B 956.225
N 960.2216
W 964.2316
Q 2 3 964.2316
B 966.3569
C 2
A 3 974.8315
N 979.0286
W 989.0403
Q 4 2 989.0403
B 991.2458
C 4
A 2 999.8273
N 1003.61
