M 6
S 2
N 714.6251
Q 3 2 719.6376
C 3
A 2 725.5859
N 729.382
W 733.392
B 734.4747
N 738.2976
W 741.3051
Q 1 2 741.3051
B 742.6017
A 2 748.7504
N 752.6535
Q 5 1 759.6577
C 5
A 1 764.6569
N 768.9208
Q 6 3 771.9283
C 6
A 3 777.636
N 782.1807
W 789.1982
Q 5 3 789.1982
B 790.5081
A 3 793.6092
N 797.5257
Q 1 0 802.5382
C 1
A 0 808.5399
N 813.8732
W 826.879
B 828.2291
N 833.402
W 837.412
Q 2 3 837.412
B 838.7354
C 2
A 3 845.4321
N 849.5758
W 859.5875
Q 4 2 859.5875
B 861.0979
C 4
A 2 863.7846
N 869.2516
