M 2
S 6
C 6
C 5
C 5
C 6
N 1766.335
W 1773.339
Q 2 1 1773.339
B 1775.157
C 2
A 1 1779.875
N 1783.618
Q 4 3 1786.626
A 3 1790.582
N 1805.192
W 1810.205
Q 3 0 1810.205
B 1811.354
C 3
A 0 1814.696
N 1819.027
W 1832.033
B 1833.195
N 1837.5
Q 4 1 1840.507
C 4
C 4
A 1 1845.439
N 1852.15
Q 2 2 1862.161
C 2
C 2
C 2
A 2 1869.112
N 1873.63
W 1880.634
B 1881.81
N 1886.088
Q 5 0 1888.093
A 0 1893.426
N 1898.158
W 1902.168
Q 1 3 1902.168
B 1903.264
C 1
A 3 1907.354
N 1911.418
Q 6 2 1916.43
C 6
C 6
A 2 1925.078
N 1930.024
