M 1
S 4
N 1043.072
W 1050.076
Q 2 2 1050.076
B 1052.869
C 2
A 2 1057.013
N 1061.571
Q 1 2 1064.579
C 1
C 1
A 2 1069.899
N 1074.082
W 1079.095
Q 2 1 1079.095
B 1080.485
C 2
C 2
A 1 1083.506
N 1087.877
W 1099.88
B 1101.23
N 1105.427
Q 3 2 1109.437
C 3
A 2 1114.811
N 1119.877
W 1124.889
B 1126.427
N 1130.904
W 1140.916
Q 4 3 1140.916
B 1142.614
C 4
A 3 1145.635
C 4
N 1149.845
Q 6 2 1151.85
C 6
A 2 1159.309
N 1163.653
Q 5 3 1168.665
C 5
C 5
A 3 1173.063
N 1177.26
W 1180.268
Q 4 2 1180.268
B 1181.818
C 4
A 2 1185.494
C 4
N 1190.333
