M 8
S 2
C 5
C 5
C 3
C 3
C 5
C 6
C 5
C 6
C 6
C 6
N 820.2715
C 3
C 2
C 3
C 3
Q 3 2 825.2841
C 3
A 2 831.9273
N 835.67
C 3
C 2
C 3
W 839.6801
C 3
B 841.1103
N 845
C 2
W 848.0075
Q 1 2 848.0075
B 849.5179
A 2 852.8864
N 857.2306
C 5
C 4
Q 5 1 864.2347
C 5
A 1 871.7335
C 5
N 877.8421
Q 6 3 880.8496
C 6
C 6
C 6
A 3 889.5781
C 6
N 896.6624
C 6
W 903.6666
Q 5 3 903.6666
B 905.7518
A 3 908.1712
N 914.1328
C 2
Q 1 0 919.1453
A 0 922.9014
N 927.446
C 4
C 5
W 940.4519
B 942.0425
N 945.7452
C 3
W 949.7552
Q 2 3 949.7552
B 951.3859
A 3 956.8796
N 960.3683
C 5
C 4
W 970.3801
Q 4 2 970.3801
B 972.492
C 4
A 2 975.553
N 979.3625
