M 8
S 8
N 2147.341
W 2151.351
Q 4 3 2151.351
C 5
C 6
C 6
C 5
C 5
C 6
B 2160.013
A 3 2163.101
N 2166.844
C 1
C 2
W 2171.856
B 2174.021
N 2178.138
C 4
C 5
Q 5 2 2183.151
C 5
C 5
A 2 2187.268
N 2190.93
C 1
C 2
W 2193.951
Q 3 3 2193.951
B 2195.889
A 3 2198.95
N 2202.68
C 6
Q 6 3 2212.691
C 6
C 6
A 3 2217.677
N 2221.433
C 1
W 2228.438
Q 1 1 2228.438
C 1
C 1
A 1 2233.771
B 2235.081
C 1
N 2238.93
C 4
C 5
Q 5 1 2248.942
C 5
C 5
A 1 2254.355
N 2258.513
C 1
W 2262.523
Q 1 3 2262.523
B 2263.726
C 1
C 1
A 3 2270.928
N 2274.62
C 1
C 2
C 6
W 2279.632
B 2282.132
N 2285.941
C 6
Q 6 1 2290.954
C 6
C 6
A 1 2294.75
N 2299.147
