M 2
S 8
N 1954.701
W 1958.711
Q 4 3 1958.711
B 1960.863
A 3 1964.445
N 1968.522
W 1973.534
B 1975.847
N 1981.675
Q 5 2 1986.687
C 5
C 5
A 2 1991.312
N 1998.691
W 2001.698
Q 3 3 2001.698
B 2003.663
A 3 2008.101
N 2011.79
Q 6 3 2021.802
C 6
C 6
A 3 2028.605
C 6
N 2034.5
W 2041.504
Q 1 1 2041.504
B 2043.122
C 1
C 1
A 1 2048.776
N 2052.612
Q 5 1 2062.624
C 5
C 5
A 1 2069.053
N 2072.916
W 2076.926
Q 1 3 2076.926
B 2078.851
C 1
C 1
A 3 2084.452
N 2088.354
W 2093.367
B 2095.225
N 2098.941
Q 6 1 2103.954
C 6
C 6
A 1 2110.263
N 2114.393
