M 7
S 4
C 2
C 2
C 1
C 1
C 2
C 2
N 986.5719
C 1
C 1
W 993.576
Q 2 2 993.576
C 1
B 995.3027
A 2 1000.77
N 1004.619
C 1
Q 1 2 1007.627
C 1
C 1
A 2 1011.851
N 1015.647
C 5
C 2
W 1020.659
Q 2 1 1020.659
C 5
B 1023.56
C 2
A 1 1030.07
C 2
C 3
N 1034.521
C 5
C 6
W 1046.524
B 1047.914
N 1051.964
C 6
C 5
C 2
Q 3 2 1055.974
A 2 1060.492
N 1064.262
C 2
C 1
C 5
C 4
W 1069.274
B 1070.624
N 1074.501
C 5
W 1084.512
Q 4 3 1084.512
B 1088.75
A 3 1091.57
N 1095.54
Q 6 2 1097.558
C 2
C 5
A 2 1104.83
N 1108.867
C 2
Q 5 3 1113.879
C 5
C 5
C 5
A 3 1119.72
N 1123.57
W 1126.578
Q 4 2 1126.578
C 2
C 5
B 1129.665
A 2 1133.501
N 1137.284
