M 1
S 5
N 1351.842
Q 5 1 1361.854
C 5
A 1 1373.75
N 1378.148
W 1380.153
Q 3 1 1380.153
B 1381.771
C 3
C 3
A 1 1396.514
N 1405.095
W 1410.108
Q 4 0 1410.108
B 1411.605
C 4
C 4
A 0 1417.927
N 1427.725
Q 2 3 1429.73
C 2
C 2
A 3 1437.563
N 1442.643
W 1447.655
B 1452.788
N 1457.333
W 1464.337
Q 1 0 1464.337
B 1465.794
C 1
C 1
A 0 1472.009
N 1477.289
Q 3 3 1480.297
C 3
C 3
C 3
A 3 1489.4
C 3
N 1498.502
Q 2 0 1507.511
C 2
C 2
A 0 1513.259
N 1529.059
W 1534.071
Q 6 1 1534.071
B 1535.582
C 6
C 6
A 1 1542.706
N 1547.037
W 1559.054
B 1560.484
N 1567.795
C 4
C 4
