M 2
S 6
N 1626.25
W 1633.254
Q 2 1 1633.254
B 1634.911
C 2
C 2
A 1 1643.92
N 1649.681
Q 4 3 1652.689
A 3 1656.94
N 1661.458
W 1666.47
Q 3 0 1666.47
B 1667.887
C 3
C 3
A 0 1676.121
N 1680.826
W 1693.832
B 1696.719
N 1701.036
Q 4 1 1704.044
C 4
C 4
A 1 1708.909
N 1716.101
Q 2 2 1726.112
C 2
C 2
C 1
C 2
C 2
A 2 1737.715
N 1741.511
W 1748.515
B 1750.36
N 1755.011
Q 5 0 1757.016
A 0 1764.141
N 1772.589
W 1776.599
Q 1 3 1776.599
B 1777.949
C 1
A 3 1781.879
N 1786.998
Q 6 2 1792.01
A 2 1800.605
N 1805.297
