M 7
S 1
C 6
C 6
N 507.6684
W 510.6893
C 5
C 5
C 3
C 2
B 515.1137
C 2
C 3
N 520.1396
C 2
Q 3 2 532.1429
A 2 535.9792
N 539.9224
C 2
C 2
C 5
C 6
C 5
W 544.9349
Q 6 0 544.9349
B 548.0627
C 6
A 0 556.6976
N 562.8062
W 572.8179
Q 1 1 572.8179
C 5
C 6
C 5
C 2
B 577.4695
A 1 579.5815
N 583.7653
C 2
C 2
C 1
Q 2 0 587.7753
A 0 591.5982
N 595.8488
C 2
C 2
C 6
Q 6 1 602.853
C 6
A 1 606.5155
C 6
N 610.5255
C 2
C 1
C 5
C 2
C 1
W 622.5288
Q 4 1 622.5288
B 623.8121
A 1 626.7126
C 5
N 631.0034
W 634.0109
Q 3 1 634.0109
C 5
C 5
C 2
B 638.5154
A 1 642.6191
C 2
N 648.0593
C 2
W 655.0635
B 656.6541
N 662.6826
C 2
C 2
Q 5 2 664.6876
C 5
C 5
C 6
A 2 668.8981
N 672.8813
