M 5
S 7
N 1579.888
Q 2 2 1584.9
C 2
A 2 1587.828
C 2
N 1591.557
W 1594.564
Q 4 0 1594.564
B 1595.968
C 4
A 0 1598.895
C 4
N 1603.012
W 1606.02
B 1607.503
N 1611.527
Q 3 3 1618.531
C 3
A 3 1622.741
C 3
N 1626.725
W 1635.734
Q 1 1 1635.734
B 1636.857
C 1
A 1 1640.64
N 1644.89
Q 6 2 1646.895
C 6
A 2 1652.429
C 6
N 1656.198
W 1660.208
Q 2 1 1660.208
B 1662.922
C 2
A 1 1665.221
C 2
N 1669.432
W 1682.437
B 1683.734
N 1687.731
W 1690.738
Q 5 0 1690.738
B 1692.396
C 5
A 0 1695.537
C 5
N 1699.787
Q 1 2 1708.797
C 1
A 2 1712.486
N 1716.402
