M 2
S 3
C 4
C 4
C 4
C 4
N 819.9565
Q 4 2 821.9615
A 2 825.8245
N 830.9306
W 842.9339
Q 3 1 842.9339
B 844.2706
C 3
C 3
A 1 850.6465
N 854.6699
W 860.6716
B 861.9414
N 865.7375
W 872.7418
Q 5 3 872.7418
B 874.2255
C 5
C 5
A 3 879.0241
N 885.4937
Q 6 3 889.5037
C 6
C 6
A 3 895.5721
N 899.4351
W 909.4468
Q 4 1 909.4468
B 910.5028
A 1 914.0182
N 918.055
W 922.0784
B 923.2012
N 926.9439
W 930.9539
Q 3 0 930.9539
B 932.1569
A 0 935.2179
N 939.0275
Q 6 0 946.0316
C 6
C 6
A 0 951.0976
N 955.5086
Q 1 3 958.5162
C 1
A 3 964.1837
N 968.0065
