M 3
S 4
C 2
N 998.7368
C 1
W 1005.741
Q 2 2 1005.741
B 1007.171
A 2 1011.743
C 1
C 1
N 1020.578
Q 1 2 1023.586
C 1
C 1
C 1
A 2 1029.935
N 1033.824
C 2
C 2
C 2
W 1038.837
Q 2 1 1038.837
B 1040.08
C 2
C 2
A 1 1044.317
N 1048.515
C 5
W 1060.531
B 1061.574
N 1065.156
C 2
Q 3 2 1069.166
A 2 1076.197
N 1080.382
C 5
C 4
C 5
W 1085.395
B 1086.504
N 1090.821
C 4
W 1100.833
Q 4 3 1100.833
B 1102.37
C 4
C 4
A 3 1108.105
N 1111.914
Q 6 2 1113.919
C 5
A 2 1121.832
N 1125.989
C 5
Q 5 3 1131.002
C 5
C 5
A 3 1136.923
N 1143.954
C 5
W 1146.962
Q 4 2 1146.962
B 1148.633
A 2 1151.386
C 5
C 5
N 1156.265
C 5
