M 4
S 5
N 1183.503
C 5
C 5
C 6
Q 5 1 1193.515
A 1 1198.273
N 1203.273
W 1205.278
Q 3 1 1205.278
C 5
C 2
B 1208.098
A 1 1211.587
N 1215.69
C 3
C 3
C 5
W 1220.703
Q 4 0 1220.703
B 1222.08
A 0 1227.079
N 1232.452
C 3
C 2
Q 2 3 1234.457
C 3
C 2
C 2
A 3 1239.71
N 1243.453
C 2
C 1
C 2
W 1248.465
B 1249.789
N 1253.705
C 4
C 5
C 6
C 6
C 1
W 1260.709
Q 1 0 1260.709
B 1262.073
C 1
A 0 1265.187
C 1
C 2
N 1270.213
Q 3 3 1273.234
C 5
C 6
C 4
C 3
C 3
C 3
A 3 1282.364
N 1286.307
C 2
C 3
Q 2 0 1295.316
C 2
A 0 1300.502
N 1306.277
C 4
C 5
W 1311.289
Q 6 1 1311.289
B 1312.8
A 1 1317.264
N 1321.635
C 5
C 6
W 1333.638
B 1335.884
N 1339.854
