M 2
S 2
N 800.5608
C 2
C 2
Q 3 2 805.5733
C 3
C 3
A 2 813.1923
N 818.0178
W 822.0278
B 824.113
N 829.6468
W 832.6543
Q 1 2 832.6543
B 834.2449
C 3
C 3
C 2
C 2
A 2 847.7053
N 853.5331
Q 5 1 860.5373
C 5
C 5
A 1 865.737
N 870.0545
Q 6 3 873.062
C 6
C 6
A 3 885.8539
N 890.3452
W 897.3494
Q 5 3 897.3494
B 902.2015
A 3 904.0995
N 909.4329
Q 1 0 914.4454
C 6
C 5
C 4
C 1
A 0 924.2032
N 930.0043
W 943.0102
B 944.681
N 949.0252
W 953.0352
Q 2 3 953.0352
B 956.9116
C 2
A 3 969.5432
N 975.6918
W 985.7036
Q 4 2 985.7036
B 987.2541
C 4
C 4
A 2 990.6359
N 995.6617
