M 7
S 7
N 1952.634
C 1
C 2
C 3
Q 2 2 1957.647
C 2
A 2 1962.325
N 1966.228
C 1
C 2
C 3
W 1969.236
Q 4 0 1969.236
C 4
B 1971.615
C 4
A 0 1979.154
N 1983.044
C 1
W 1986.051
B 1991.866
N 1995.381
Q 3 3 2002.385
C 2
C 3
C 3
A 3 2010.058
C 3
N 2014.068
C 1
C 2
W 2023.077
Q 1 1 2023.077
B 2024.267
C 1
A 1 2031.177
N 2035.508
Q 6 2 2037.513
C 6
C 5
C 6
A 2 2046.776
N 2050.599
W 2054.609
Q 2 1 2054.609
C 2
C 1
B 2060.237
C 1
C 1
C 2
A 1 2065.463
C 1
C 1
N 2068.992
C 4
C 5
C 6
C 5
C 5
W 2081.998
B 2082.639
N 2086.676
C 1
C 2
W 2089.684
Q 5 0 2089.684
C 3
C 4
C 5
C 6
B 2092.584
C 5
A 0 2095.739
N 2100.096
C 1
Q 1 2 2109.105
C 1
A 2 2116.03
C 1
C 1
C 1
C 1
N 2120.093
